Info: Start Nativelink Simulation process
Info: NativeLink has detected Verilog design -- Verilog simulation models will be used

========= EDA Simulation Settings =====================

Sim Mode              :  RTL
Family                :  cycloneive
Quartus root          :  d:/quartus ii 13.1/install/quartus/bin64/
Quartus sim root      :  d:/quartus ii 13.1/install/quartus/eda/sim_lib
Simulation Tool       :  modelsim
Simulation Language   :  verilog
Simulation Mode       :  GUI
Sim Output File       :  
Sim SDF file          :  
Sim dir               :  simulation\modelsim

=======================================================

Info: Starting NativeLink simulation with ModelSim software
Sourced NativeLink script d:/quartus ii 13.1/install/quartus/common/tcl/internal/nativelink/modelsim.tcl
Warning: File spi_flash_pp_run_msim_rtl_verilog.do already exists - backing up current file as spi_flash_pp_run_msim_rtl_verilog.do.bak
Info: Spawning ModelSim Simulation software 
